…
Run for one species - this needs the spp table of
species:

taxo <- read_csv(here("data", "derived_data/benthos_taxo_rank.csv"))
spp <- taxo %>% 
  filter(rank == "Species") %>% 
  mutate(aphia_index = match(.$AphiaID, taxo$AphiaID))

Then run the presence-absence function for a single species:

get_presabs_sp_na_rm(sp_index = spp$aphia_index[1])

## # A tibble: 31,099 × 2
##    sample_id aphia_id
##        <dbl>    <dbl>
##  1       212   141579
##  2       266   141579
##  3       302   141579
##  4      2728   141579
##  5      2729   141579
##  6      2739   141579
##  7      2743   141579
##  8      2831   141579
##  9      3431   141579
## 10      4143   141579
## # … with 31,089 more rows
…
